{
    "MediaBrowser Client": "Jellyfin Web",
    "Device": "Chrome",
    "DeviceId": "TW96aWxsYS81LjAgKFdpbmRvd3MgTlQgMTAuMDsgV2luNjQ7IHg2NCkgQXBwbGVXZWJLaXQvNTM3LjM2IChLSFRNTCwgbGlrZSBHZWNrbykgQ2hyb21lLzExOC4wLjAuMCBTYWZhcmkvNTM3LjM2fDE2OTc5NDg4MjIxMDk1",
    "Version": "10.8.5"
}